…
``` r
trash = df_trash %>% 
  janitor::clean_names() %>% 
  rename(weight = weight_tons, volume = volume_cubic_yards) %>% 
  drop_na(dumpster) %>% 
  mutate(sports_balls = as.integer(round(sports_balls)))

trash
```

    ## # A tibble: 344 x 14
    ##    dumpster month  year date                weight volume plastic_bottles
    ##       <dbl> <chr> <dbl> <dttm>               <dbl>  <dbl>           <dbl>
    ##  1        1 May    2014 2014-05-16 00:00:00   4.31     18            1450
    ##  2        2 May    2014 2014-05-16 00:00:00   2.74     13            1120
    ##  3        3 May    2014 2014-05-16 00:00:00   3.45     15            2450
    ##  4        4 May    2014 2014-05-17 00:00:00   3.1      15            2380
    ##  5        5 May    2014 2014-05-17 00:00:00   4.06     18             980
    ##  6        6 May    2014 2014-05-20 00:00:00   2.71     13            1430
    ##  7        7 May    2014 2014-05-21 00:00:00   1.91      8             910
    ##  8        8 May    2014 2014-05-28 00:00:00   3.7      16            3580
    ##  9        9 June   2014 2014-06-05 00:00:00   2.52     14            2400
    ## 10       10 June   2014 2014-06-11 00:00:00   3.76     18            1340
    ## # … with 334 more rows, and 7 more variables: polystyrene <dbl>,
    ## #   cigarette_butts <dbl>, glass_bottles <dbl>, grocery_bags <dbl>,
    ## #   chip_bags <dbl>, sports_balls <int>, homes_powered <dbl>
…
#import sheet 2018 precipitation
precpt_2018 = read_excel("data/Trash-Wheel-Collection-Totals-8-6-19.xlsx", sheet = "2018 Precipitation", skip = 1) %>%
  janitor::clean_names() %>% 
  drop_na(month) %>% 
  mutate(year = rep(2018))

#combine two sheets
precpt_data = bind_rows(precpt_2017, precpt_2018) %>% 
  mutate(month = month.name[month]) %>% 
  select(year, month, total)

precpt_data
```

    ## # A tibble: 24 x 3
    ##     year month     total
    ##    <dbl> <chr>     <dbl>
    ##  1  2017 January    2.34
    ##  2  2017 February   1.46
    ##  3  2017 March      3.57
    ##  4  2017 April      3.99
    ##  5  2017 May        5.64
    ##  6  2017 June       1.4 
    ##  7  2017 July       7.09
    ##  8  2017 August     4.44
    ##  9  2017 September  1.95
    ## 10  2017 October    0   
    ## # … with 14 more rows
…
``` r
pols
```

    ## # A tibble: 822 x 9
    ##    year  month    gov_gop sen_gop rep_gop gov_dem sen_dem rep_dem president
    ##    <chr> <chr>      <dbl>   <dbl>   <dbl>   <dbl>   <dbl>   <dbl> <chr>    
    ##  1 1947  January       23      51     253      23      45     198 dem      
    ##  2 1947  February      23      51     253      23      45     198 dem      
    ##  3 1947  March         23      51     253      23      45     198 dem      
    ##  4 1947  April         23      51     253      23      45     198 dem      
    ##  5 1947  May           23      51     253      23      45     198 dem      
    ##  6 1947  June          23      51     253      23      45     198 dem      
    ##  7 1947  July          23      51     253      23      45     198 dem      
    ##  8 1947  August        23      51     253      23      45     198 dem      
    ##  9 1947  Septemb…      23      51     253      23      45     198 dem      
    ## 10 1947  October       23      51     253      23      45     198 dem      
    ## # … with 812 more rows
…
    ## Parsed with column specification:
    ## cols(
    ##   date = col_character(),
    ##   close = col_double()
    ## )

``` r
snp
```

    ## # A tibble: 787 x 3
    ##    year  month     close
    ##    <chr> <chr>     <dbl>
    ##  1 1950  January    17.0
    ##  2 1950  February   17.2
    ##  3 1950  March      17.3
    ##  4 1950  April      18.0
    ##  5 1950  May        18.8
    ##  6 1950  June       17.7
    ##  7 1950  July       17.8
    ##  8 1950  August     18.4
    ##  9 1950  September  19.5
    ## 10 1950  October    19.5
    ## # … with 777 more rows
…
### Join the datasets

Join the datasets by merging snp into pols, and merging unemployment
into the result. Explain briefly what each dataset contained, and
describe the resulting dataset (e.g. give the dimension, range of years,
and names of key variables).

``` r
df_join = left_join(pols, snp, by = c("year","month"))
df_join = left_join(df_join, unemployment, by = c("year","month"))
df_join
```

    ## # A tibble: 822 x 11
    ##    year  month gov_gop sen_gop rep_gop gov_dem sen_dem rep_dem president
    ##    <chr> <chr>   <dbl>   <dbl>   <dbl>   <dbl>   <dbl>   <dbl> <chr>    
    ##  1 1947  Janu…      23      51     253      23      45     198 dem      
    ##  2 1947  Febr…      23      51     253      23      45     198 dem      
    ##  3 1947  March      23      51     253      23      45     198 dem      
    ##  4 1947  April      23      51     253      23      45     198 dem      
    ##  5 1947  May        23      51     253      23      45     198 dem      
    ##  6 1947  June       23      51     253      23      45     198 dem      
    ##  7 1947  July       23      51     253      23      45     198 dem      
    ##  8 1947  Augu…      23      51     253      23      45     198 dem      
    ##  9 1947  Sept…      23      51     253      23      45     198 dem      
    ## 10 1947  Octo…      23      51     253      23      45     198 dem      
    ## # … with 812 more rows, and 2 more variables: close <dbl>,
    ## #   pct_unemployment <dbl>
…
